{
    "url": "https://www.ximalaya.com/revision/search?core=album&kw=%E8%AF%BA%E8%B4%9D%E5%B0%94%E6%96%87%E5%AD%A6&page=5&spellchecker=false&rows=20&condition=relation&device=iPhone&fq=&paidFilter=true",
    "ret": 200,
    "msg": "专辑检索结果",
    "data": {
        "result": {
            "response": {
                "docs": [
                    {
                        "play": 81,
                        "user_source": "1",
                        "cover_path": "//imagev2.xmcdn.com/group32/M0A/3C/20/wKgJUFn14P7SiYHRAAenFXJjNF8447.jpg!op_type=3&columns=140&rows=140&magick=png",
                        "title": "诺贝尔文学奖大师经典悦读 少年版·萌芽卷",
                        "uid": 55865836,
                        "url": "/ertong/11324528/",
                        "pinyin": "ertong",
                        "category_id": 6,
                        "intro": "主播: 逍遥王牛仔小七",
                        "id": 11324528,
                        "is_paid": false,
                        "is_finished": 0,
                        "category_title": "儿童",
                        "isDraft": false,
                        "created_at": 1509286143000,
                        "type": "1",
                        "last_uptrack_at_hour": 44646,
                        "is_v": false,
                        "count_comment": 0,
                        "updated_at": 1519729344000,
                        "nickname": "逍遥王牛仔小七",
                        "verify_type": 0,
                        "serialState": 0,
                        "tracks": 4,
                        "anchorUrl": "/zhubo/55865836",
                        "richTitle": "<span class =\"orange-1\">诺贝尔文学</span>奖大师经典悦读 少年版·萌芽卷",
                        "vipType": 0
                    },
                    {
                        "play": 60,
                        "user_source": "1",
                        "cover_path": "//imagev2.xmcdn.com/group32/M06/BA/94/wKgJS1m9WZqip_STAACw_2yC3LI474.jpg!op_type=3&columns=140&rows=140&magick=png",
                        "title": "《小毛驴与我》诺贝尔文学奖获得者希梅内斯小品文集",
                        "uid": 9553695,
                        "url": "/youshengshu/10628430/",
                        "pinyin": "youshengshu",
                        "category_id": 3,
                        "intro": "主播: 沙发上的抱枕",
                        "id": 10628430,
                        "is_paid": false,
                        "is_finished": 0,
                        "category_title": "有声书",
                        "isDraft": false,
                        "created_at": 1505581467000,
                        "type": "1",
                        "last_uptrack_at_hour": 43497,
                        "is_v": false,
                        "count_comment": 0,
                        "updated_at": 1505586527000,
                        "nickname": "沙发上的抱枕",
                        "verify_type": 0,
                        "serialState": 0,
                        "tracks": 2,
                        "anchorUrl": "/zhubo/9553695",
                        "richTitle": "《小毛驴与我》<span class =\"orange-1\">诺贝尔文学</span>奖获得者希梅内斯小品文集",
                        "vipType": 0
                    },
                    {
                        "play": 355,
                        "user_source": "1",
                        "cover_path": "//imagev2.xmcdn.com/group29/M00/DD/1A/wKgJXVk8oNDSimF5AADD5CssAVE874.jpg!op_type=3&columns=140&rows=140&magick=png",
                        "title": "短篇小说《逃离》加拿大诺贝尔文学奖",
                        "uid": 67955497,
                        "url": "/youshengshu/8628232/",
                        "pinyin": "youshengshu",
                        "category_id": 3,
                        "intro": "免费订阅: 著名加拿大短篇小说作家爱丽丝·门罗(Alice Munro)荣获2013年诺贝尔文学奖作品《逃离》。86岁的门罗女士的作品深切感人，描写细腻。主要探索小镇生活中的男女之间的复杂纠葛。 门罗女士是全世界第13位赢得该文学奖的女作家。 主播：革革尔木 革革尔木是资深电台主播，专门研究小说播出近20年，用声音塑造了数不请的人物形象。演播纯美自然，不夸张，不做作，听了让人很舒服！",
                        "id": 8628232,
                        "is_paid": false,
                        "is_finished": 0,
                        "tags": "",
                        "category_title": "有声书",
                        "isDraft": false,
                        "created_at": 1497145802000,
                        "type": "1",
                        "last_uptrack_at_hour": 41195,
                        "is_v": false,
                        "count_comment": 0,
                        "updated_at": 1499383230000,
                        "nickname": "Wxcm",
                        "verify_type": 0,
                        "serialState": 0,
                        "tracks": 1,
                        "anchorUrl": "/zhubo/67955497",
                        "richTitle": "短篇小说《逃离》加拿大<span class =\"orange-1\">诺贝尔文学</span>奖",
                        "vipType": 0
                    },
                    {
                        "play": 73,
                        "user_source": "1",
                        "cover_path": "//imagev2.xmcdn.com/group29/M08/56/F9/wKgJXVkz0SSQJU3KAACs_SSAnQk149.jpg!op_type=3&columns=140&rows=140&magick=png",
                        "title": "82年诺贝尔文学奖得主–加西亚·马尔克斯作品",
                        "uid": 24314102,
                        "url": "/youshengshu/8404615/",
                        "pinyin": "youshengshu",
                        "category_id": 3,
                        "intro": "主播: YuKi_Ceng",
                        "id": 8404615,
                        "is_paid": false,
                        "is_finished": 0,
                        "category_title": "有声书",
                        "isDraft": false,
                        "created_at": 1496323351000,
                        "type": "1",
                        "last_uptrack_at_hour": 41009,
                        "is_v": false,
                        "count_comment": 0,
                        "updated_at": 1496627607000,
                        "nickname": "YuKi_Ceng",
                        "verify_type": 0,
                        "serialState": 0,
                        "tracks": 2,
                        "anchorUrl": "/zhubo/24314102",
                        "richTitle": "82年<span class =\"orange-1\">诺贝尔文学</span>奖得主–加西亚·马尔克斯作品",
                        "vipType": 0
                    },
                    {
                        "play": 141,
                        "user_source": "1",
                        "cover_path": "//imagev2.xmcdn.com/group22/M06/E5/96/wKgJM1jDrrqhsFwcAABwWCowfuo093.jpg!op_type=3&columns=140&rows=140&magick=png",
                        "title": "鲍勃·迪伦的诺贝尔文学奖获奖感言",
                        "uid": 39877910,
                        "url": "/shishang/7071044/",
                        "pinyin": "shishang",
                        "category_id": 31,
                        "intro": "主播: 她是小舞",
                        "id": 7071044,
                        "is_paid": false,
                        "is_finished": 0,
                        "category_title": "时尚生活",
                        "isDraft": false,
                        "created_at": 1489219261000,
                        "type": "1",
                        "last_uptrack_at_hour": 38952,
                        "is_v": false,
                        "count_comment": 0,
                        "updated_at": 1489219658000,
                        "nickname": "她是小舞",
                        "verify_type": 0,
                        "serialState": 0,
                        "tracks": 1,
                        "anchorUrl": "/zhubo/39877910",
                        "richTitle": "鲍勃·迪伦的<span class =\"orange-1\">诺贝尔文学</span>奖获奖感言",
                        "vipType": 0
                    },
                    {
                        "play": 77,
                        "user_source": "1",
                        "cover_path": "//imagev2.xmcdn.com/group10/M07/93/1C/wKgDZ1dmwJzxnf1qAAESrc0Oq8M880.jpg!op_type=3&columns=140&rows=140&magick=png",
                        "title": "诺贝尔文学奖全集",
                        "uid": 30988906,
                        "url": "/lishi/4557146/",
                        "pinyin": "lishi",
                        "category_id": 9,
                        "intro": "主播: 汤美雪子",
                        "id": 4557146,
                        "is_paid": false,
                        "is_finished": 0,
                        "category_title": "历史",
                        "isDraft": false,
                        "created_at": 1466351775000,
                        "type": "1",
                        "last_uptrack_at_hour": 34952,
                        "is_v": false,
                        "count_comment": 0,
                        "updated_at": 1486340486000,
                        "nickname": "汤美雪子",
                        "verify_type": 0,
                        "serialState": 0,
                        "tracks": 3,
                        "anchorUrl": "/zhubo/30988906",
                        "richTitle": "<span class =\"orange-1\">诺贝尔文学</span>奖全集",
                        "vipType": 0
                    }
                ],
                "numFound": 86,
                "totalPage": 5,
                "start": 80,
                "pageSize": 20,
                "currentPage": 5,
                "sc": {},
                "total": 86
            },
            "responseHeader": {
                "QTime": 0,
                "params": {
                    "q": "诺贝尔文学",
                    "core": "album",
                    "defType": "edismax",
                    "indent": "on",
                    "qf": "category_title^100 title^80 tags^50 intro^0.001",
                    "start": "80",
                    "sort": "album_relation desc",
                    "searchMessage": "{\"uid\":45738789,\"domain\":\"2\",\"from\":null,\"time\":20190702235200400,\"keyword\":\"诺贝尔文学\",\"uuid\":\"5e2ec7ee51b044f3bcb2044a20a437e6\"}",
                    "rows": "20",
                    "wt": "json"
                },
                "status": 0,
                "warnWord": null
            }
        }
    }
}